id name  typeid (0-CAVALRY, 1-CANNON, 2-INFANTRY)
1 Albania 1
2 Austria 0
3 Belarus 2    
4 Belgium 1
5 Bosnia 0
6 Bulgaria 1
7 Croatia 1
8 Czech 2
9 Denmark 2
10 Estonia 0
11 Finland 2
12 France 0
13 Germany 0
14 Greece 2
15 Hungary 2
16 Iceland 0
17 Ireland 1
18 Italy 0
19 Latvia 0
20 Lithuania 1
21 Macedonia 1
22 Moldova 2
23 Netherlands 2
24 Norway 1
25 Poland 1
26 Portugal 2
27 Romania 0
28 Serbia 0
29 Slovakia 0
30 Slovenia 2
31 Spain 1
32 Sweden 2
33 Switzerland 1
34 Ukraine 1
35 UnitedKingdom 0
